Working with data in elite sport
…
What do you notice?

---

## Check the new variable

```r
gold_medal_comparison %>%
* select(unique_event_ID)
```

```
## # A tibble: 358 x 1
##    unique_event_ID                                           
##    <chr>                                                     
##  1 1998_Biathlon_Biathlon_NOR_Men_10KM                       
##  2 1998_Biathlon_Biathlon_NOR_Men_20KM                       
##  3 1998_Bobsleigh_Bobsleigh_CAN_Men_Two-Man                  
##  4 1998_Bobsleigh_Bobsleigh_CAN_Men_Two-Man                  
##  5 1998_Curling_Curling_CAN_Women_Curling                    
##  6 1998_Curling_Curling_CAN_Women_Curling                    
##  7 1998_Curling_Curling_CAN_Women_Curling                    
##  8 1998_Curling_Curling_CAN_Women_Curling                    
##  9 1998_Curling_Curling_CAN_Women_Curling                    
## 10 1998_Skating_Short Track Speed Skating_CAN_Men_5000M Relay
## # ... with 348 more rows
```

---

## Check the new variable

```r
gold_medal_comparison %>%
  select(unique_event_ID)
```

```
## # A tibble: 358 x 1
##    unique_event_ID                                           
##    <chr>                                                     
##  1 1998_Biathlon_Biathlon_NOR_Men_10KM                       
##  2 1998_Biathlon_Biathlon_NOR_Men_20KM                       
*##  3 1998_Bobsleigh_Bobsleigh_CAN_Men_Two-Man                  
*##  4 1998_Bobsleigh_Bobsleigh_CAN_Men_Two-Man                  
##  5 1998_Curling_Curling_CAN_Women_Curling                    
##  6 1998_Curling_Curling_CAN_Women_Curling                    
##  7 1998_Curling_Curling_CAN_Women_Curling                    
##  8 1998_Curling_Curling_CAN_Women_Curling                    
##  9 1998_Curling_Curling_CAN_Women_Curling                    
## 10 1998_Skating_Short Track Speed Skating_CAN_Men_5000M Relay
## # ... with 348 more rows
```

---

## Check the new variable

```r
gold_medal_comparison %>%
  select(unique_event_ID)
```

```
## # A tibble: 358 x 1
##    unique_event_ID                                           
##    <chr>                                                     
##  1 1998_Biathlon_Biathlon_NOR_Men_10KM                       
##  2 1998_Biathlon_Biathlon_NOR_Men_20KM                       
##  3 1998_Bobsleigh_Bobsleigh_CAN_Men_Two-Man                  
##  4 1998_Bobsleigh_Bobsleigh_CAN_Men_Two-Man                  
*##  5 1998_Curling_Curling_CAN_Women_Curling                    
*##  6 1998_Curling_Curling_CAN_Women_Curling                    
*##  7 1998_Curling_Curling_CAN_Women_Curling                    
*##  8 1998_Curling_Curling_CAN_Women_Curling                    
*##  9 1998_Curling_Curling_CAN_Women_Curling                    
## 10 1998_Skating_Short Track Speed Skating_CAN_Men_5000M Relay
## # ... with 348 more rows
```
…
